Customer Account,refNum,"Self-Service User Management Client Admin Role 1:  Name, Email, Phone, Country, Timezone","Self-Service User Management Client Admin Role 2:  Name, Email, Phone, Country, Timezone","Self-Service User Management Client Admin Role 3:  Name, Email, Phone, Country, Timezone"
ActivisionBlizzard,ACPUUS,,,
ActivisionBlizzard,ACCOUS,,,
ActivisionBlizzard,BEENUS,,,
ActivisionBlizzard,BLENGLOBAL,,,
ActivisionBlizzard,DNOEUS,,,
ActivisionBlizzard,HMSTUS,,,
ActivisionBlizzard,INWAUS,,,
ActivisionBlizzard,RASOUS,,,
ActivisionBlizzard,SLGAUS,,,
ActivisionBlizzard,TFBOUS,,,
ActivisionBlizzard,TREYUS,,,
ActivisionBlizzard,VIVIUS,,,
Encore,ECGRUS,,,
Ford Motor(FMCK),FMCRUS,,,
FourVision (partner),FOURGLOBAL,,,
GDH,GDHIUS,,,
Heartland Dental,HEDEUS,,,
IntraFusion,INTRUS,,,
IRBY,IRBYUS,,,
Phenom People,PHENA0059,,,
"Workday, Inc.",WORKUS,,,
Phillips,PHILUS,"sandra.petschar@philips.com, 0031640048868 CET",,
Baker Hughes,BAHUGLOBAL,Darryl Hood darryl.hood@bakerhughes.com,Casie Paluska casie.paluska@bakerhughes.com,Neil Daly neil.daly@bakerhughes.com
Etsy,ETSYGLOBAL,"Sally Boling, sally@etsy.com, EST ",,
ADCLUS,ADTAUS,"Vanessa Rodriguez, vanessa.rodriguez@adtalem.com, (630) 515-4552, US, CST","Michelle Nyborg, michelle.nyborg@adtalem.com, (630) 515-7700, US, CST","Murillo Fontenele, murillo.fontenele@adtalem.com, (312) 651-1400, US, CST"
American National Insurance Company,AMERUS,"Shana Mitchell, shana.mitchell@americannational.com, (417) 343-8553, US, CST","Ashlie Huston, ashlie.huston@americannational.com, (417) 887-4990 ext. 4408, US, CST",
Freddie Mac,FRMAUS,"Tarik Laiketsion, tarik_laiketsion@freddiemac.com, (703) 903-2000, US, EST","Dreama Hemingway, dreama_hemingway@freddiemac.com,  703.918.8169, US, CST","Shanelle Lee, shanelle_lee@freddiemac.com, (703) 903-3254, US, EST"
Frost Bank,FRBAUS,"Cleve Markum, cleve.markum@frostbank.com, (210) 220-5036, US, CST","Mark Falvo, mark.falvo@frostbank.com, 210-220-4209, US, CST","Nicole Turner, nicole.turner@frostbank.com, (210) 220-4011, US, CST"
KinderCare,KNOWA0054,"Derek Murphy-Johnson, dejohnson@kc-education.com, (503) 952-6998, US, PST","Rebekkah Brainerd, rbrainerd@kc-education.com, (503) 872-1755, US, PST","Katie Ellis, kellis@kindercare.com, 503.872.1453, US, PST"
MGM Resorts International,MRINGLOBAL,"Katie Flanagan, kflanagan@mgmresorts.com, (917) 658-5283, US, PST","Chanta Ramsey, chramsey@beaurivage.com, (228) 386-7515, US, PST",
UCHealth - University of Colorado,UCHDA005N,"Ryan Toedtman, Ryan.Toedtman@uchealth.org, MST",,
Radian,RADIUS,"BJ Williams,  bj.williams@radian.com, EST",,
State Street Corporation,STSTGLOBAL,"Samantha Fearn, sfearn@statestreet.com, GMT","Anna Szabowska-Walaszczyk, ASzabowska-Walaszczyk@statestreet.com, GMT +2",
Getinge,GETIGLOBAL,"Deborah Ackerly, deborah.ackerly@getinge.com, US, EST",,
Qatar Airways,QAAIGLOBAL,,,
SUSE,SUSEUS,"Niki Kostova, niki.kostova@suse.com, Bulgaria, CET","Ryan Obernier, ryan.obernier@suse.com, NL, CET",
Cushman & Wakefield,CUWAGLOBAL,Aylwin Pang | Aylwin.Pang@cushwake.com | +61 3 9631 7636 | Australia | AEST,Josh Rainey | joshua.rainey@cushwake.com | US | CDT,Matt Disher | Matt.Disher@cushwake.com | US | EST
Booking Holding,BOOKUS,,,
NN Group,NNGRGLOBAL,,,
Straumann Group,STGRGLOBAL,"Ajay Patel, ajay.patel@straumann.com, +41 79 844 81 55, Swiss, CEST","Hannah King, hannah.king@straumann.com, +41 61 965 11 11, BST",
American Axle & Manufacturing (AAM),AAMAUS,,,
Analog Devices,ANLGUS,,,
Brother USA,BROTUS,,,
Campbell Soup Company,CSCOUS,,,
Core & Main,COREUS,,,
Land O'Lakes,LAOLUS,,,
Morgan Corporation,MTBLUS,,,
Sargento Foods Inc.,SFINUS,,,
U.S. Venture,USVEUS,,,
Veritiv,VOCOUS,,,
Lewis Tree Service,LTSEUS,,,
NTT LTD (Formerly Dimension Data),NTT1GLOBAL,,,
Takeaway.com,TAKEGLOBAL,,,
Advanced Group,ADCLUS,,,
Advanced Group,ADGRUS,,,
Advanced Group,ADREUS,,,
Advanced Group,WUGRUS,,,
"AllTek Staffing, Inc.",ALLTUS,,,
AMN Healthcare,AMNCA0089,,,
AtWork Group,ATWOUS,,,
David Aplin Group,DAGRUS,,,
Disys,DISYUS,,,
Hire Counsel,HICOUS,,,
Hire Counsel,MESTUS,,,
Malone Workforce Solutions,MAHEUS,,,
Malone Workforce Solutions,MASTUS,,,
Malone Workforce Solutions,MRINUS,,,
Malone Workforce Solutions,JTSTUS,,,
Medix Staffing Solutions,MXEDUS,,,
Mitchell Martin,MITCA000J,,,
North Highland,NOHIUS,,,
The Howard Hughes Corporation,HOHUUS,,,
United States Cellular Corporation,USCEUS,,,
Criteo,CRITUS,"Danielle Willi , d.willi@criteo.com, +33 6 60 94 83 24, France",,
Saudi Aramco,,"Jolie Nguyen, jolie.nguyen@aramcoamericas.com +966 11 297 8775 Houston CDT ","Scott Gavin, scott.gavin@aramco.co.uk +447515999207, UK GMT
",
Axa Group,,,,
CenturyLink / Lumen,CENTGLOBAL,,,
Kemper,KEMPGLOBAL,,,
Mercy Health,MEHEUS,"Paul Kinsey, paul.kinsey@mercy.net, 314-364-4122, USA CST","Theresa Kelly, Theresa.Kelly@mercy.net, 314-364-4853 USA CST",
Alight,ALIGUS,susan.wilson@alight.com Central ,julie.eagy@alight.com Central ,
Centene Corporation,CENTUS,Jessica.L.Rhodes@centene.com 847-722-2563,Stephanie.Lopez@wellcare.com 813.206.2730,
"IDEXX Laboratories, Inc.",IDEXUS,Holly-LeBlanc@idexx.com EST,"Angela-Lanier@idexx.com, Netherlands",
Magellan Health,MAGAUS,gusmank@magellanhealth.com Central ,,
NFI Industries,NFINUS,Jenna Alexander  (856) 857-2485  ESTJenna.Alexander@nfiindustries.com USA,Melisa Baker EST melisa.baker@nfiindustries.com USA ,Zach Greer EST (856) 552-3189 zach.greer@nfiindustries.com USA
NFI Industries,NIDRUS,David.Pike@nfiindustries.com EST,kaitlyn.cambria@nfiindustries.com EST,
Trilogy Health Services,THSEUS,,,
Ciena,CIENUS,"Lindsay Sharp, LSharp@ciena.com, EST",,
Citrix Systems Inc,CITRA0058,"Aaron Maccabee, aaron.maccabee@citrix.com, PST","Simon Lively, simon.lively@citrix.com EST",
Ellucian,ELLUUS,"Mohini Sharma mohini.sharma@ellucian.com, EST +1.800.456.2009
","Charlotte Brockbank, +447568133630 charlotte.brockbank@ellucian.com BST",
Endurance International Group,EIGRGLOBAL,,,
Fortive Corporation,FLCOUS,Trevor Johnson (425) 446-6256 Email trevor.johnson@fluke.com US PST,,
Fortive Corporation,FORTUS,Krista Gilbert (425) 446-5451 krista.gilbert@fortive.com PST,,
Fortive Corporation,VONTUS,(no longer part of Fortive fyi) Susan Graye (281) 787-6000 susan.graye@vontier.com US EST,kelsey kovach (984) 247-8308 kelsey.kovach@vontier.com US EST,
Unisys,UNISUS,julie dahlen (215) 986-4011 julie.dahlen@unisys.com US EST,debra stogner (973) 570-8575 debra.stogner@unisys.com US EST,
Workfront,WOINUS,,,
Resource Solutions,RESOGLOBAL,,,
"Godiva Chocolatier, Inc.",GODIGLOBAL,,,
Marel,MAREGLOBAL,,,
PMP Recruitment,PMP1GLOBAL,,,
Conmed Corporation,CONMGLOBAL,"Erica Flynn, EricaFlynn@conmed.com, 315.368.4392, USA, EST","Kimberly Pence, KimberlyPence@conmed.com, 816-719-0171, USA, EST",
Davita Kidney Care,DAVIUS,"Erika Boutain, Erika.Boutain@davita.com, (952) 221-4691, USA, EST",,
FOX Rehabilitation,FOREUS,,,
Optum Health (Davita Medical Group),HCPAUS,Lily Siegel-Gardner lily_siegel-gardner@uhg.com,,
Mosaic Life Care,MLCAUS,"Shelly Higdon, Shelly.Higdon@mymlc.com, USA, CST","Heather Misemer, Heather.Misemer@mymlc.com, 816-271-7061, USA, CST",
Satellite Healthcare,SAHEGLOBAL,"Stephanie Fong, stephanief@spinrecruitment.com, (925) 944-6060, USA, PST","Michael Ball, ballm@satellitehealth.com, 669-236-5908, USA, EST","Paul Henneke, HennekeP@SatelliteHealth.com, 669-236-5914, USA, PST"
Virginia Mason Medical Center,VIMAUS,"Carol Altschul, Carol.Altschul@virginiamason.org, (206)341-0981, USA, PST","Ian Johnson, Ian.Johnson@virginiamason.org, USA, PST",
Ancestry,ANCEUS,,,
"Box, Inc.",BOX1US,,,
Garmin,GARMUS,,,
Pitney Bowes,PIBOGLOBAL,,,
"Zendesk, Inc.",ZENDUS,"Seama Reazi, srezai@zendesk.com, US, PST","Ewa Zajac, ezajac@zendesk.com, Ireland, IST","Dave Birr, dbirr@zendesk.com, US, PST"
TPX Communications,TPCOUS,"Katelyn Huner, Katelyn.Hunter@cielotalent.com, (816)510-4070, US, Eastern",,
Beachbody,BEACUS,"Flavio Hernandez, flaviohernandez@beachbody.com, (323) 898-2749, USA, PST","Brittany Powers, bpowers@beachbody.com, (804) 387-3605, USA, PST",
Cielo Talent,CIELUS,"Katelyn Huner, Katelyn.Hunter@cielotalent.com, (816)510-4070, US, Eastern",,
Covenant Living,COLIGLOBAL,"Eileen Boyle, eboyle@covliving.org, (773) 878-4451, USA, Central Timezone","Stephanie Kramer, skramer@covliving.org, (773) 878-4303, USA, Central Timezone","Angela Darwish, adarwish@covliving.org, 847.903.1606, USA, Central Timezone"
CSG International,CSINUS,"Ginny McClain, ginny.mcclain@csgi.com, US, Central","Katie Burbach, katie.burbach@csgi.com, US, Central","Rachel Hoff, Rachel.Hoff@csgi.com, US, Central"
Froedtert Health,FROEUS,"Katelyn Huner, Katelyn.Hunter@cielotalent.com, (816)510-4070, US, Eastern",,
Health First,HEFIUS,"Jessica Gibson, jgibson@healthfirst.org, (212) 801-6104, US, EST","James Kirchhoff, jkirchhoff@healthfirst.org, 212-823-8664, US, EST","Kristin Johnson, krjohnson@healthfirst.org, (305) 528-0784, US, EST"
iHerb,IHINGLOBAL,"Matthew Kelson, matthew.kelson@iherb.com, US, Eastern","AJ Espinoza, aj.espinoza@iherb.com, US, Pacific","Cornelia Cifelli, cornelia.cifelli@iherb.com, US, Central"
Integrity Staffing Solutions,INSTUS,"Meena Puffer, mpuffer@integritystaffing.com, 302-588-2553, US, EST","Jason Lockwood, jlockwood@integritystaffing.com, 859-445-9645, US, EST",
Integrity Staffing Solutions,ISS1US,"Meena Puffer, mpuffer@integritystaffing.com, 302-588-2553, US, EST","Jason Lockwood, jlockwood@integritystaffing.com, 859-445-9645, US, EST",
Louisiana Economic Development (LED),LEFAGLOBAL,"Jamie Nakamoto, 225.241.5435, Jamie.nakamoto@la.gov, USA, CDT","Amy Tressitt, 225.342.1628, amy.tressitt@la.gov, USA, CDT","Udit Roy, 225.219.4629, udit.roy@la.gov, USA, CDT"
New Balance,NEBAGLOBAL,"Dan Benson, daniel.benson@newbalance.com, (978) 946-4337, USA, EST",,
Onin Staffing,ONINGLOBAL,"Chris McGuffin, cmcguffin@oningroup.com, (877) 280-5664, USA, CST","Joshua Jackson, jjackson@oningroup.com, (877) 280-5664, USA, CST","Onin Support, infotech@oningroup.com, (877) 280-5664, USA, CST"
PrideStaff,PRIDUS,"Nicole Massaro, nmassaro@pridestaff.com, 559.449.5828, USA, Pacific Time Zone","Karan Chhibber, kchhibber@pridestaff.com, 559.449.5808, USA, Pacific Time Zone","Samuel Pano, spano@pridestaff.com, 559.449.5850, USA, Pacific Time Zone"
PrideStaff,INREUS,"Nicole Massaro, nmassaro@pridestaff.com, 559.449.5828, USA, Pacific Time Zone","Karan Chhibber, kchhibber@pridestaff.com, 559.449.5808, USA, Pacific Time Zone","Samuel Pano, spano@pridestaff.com, 559.449.5850, USA, Pacific Time Zone"
PrideStaff,PRFIUS,"Nicole Massaro, nmassaro@pridestaff.com, 559.449.5828, USA, Pacific Time Zone","Karan Chhibber, kchhibber@pridestaff.com, 559.449.5808, USA, Pacific Time Zone","Samuel Pano, spano@pridestaff.com, 559.449.5850, USA, Pacific Time Zone"
PrideStaff,RXREUS,"Nicole Massaro, nmassaro@pridestaff.com, 559.449.5828, USA, Pacific Time Zone","Karan Chhibber, kchhibber@pridestaff.com, 559.449.5808, USA, Pacific Time Zone","Samuel Pano, spano@pridestaff.com, 559.449.5850, USA, Pacific Time Zone"
Staples,STDEGLOBAL,"Olya Katz, olya.katz@quill.com, (847) 876-3527, USA, Central Timezone","Rachel Little, Rachel.little@staples.com, (615-843-4729), USA, Central Timezone",
TQL (Total Quality Logistics),TQL1US,"Lori Henderson, lhenderson@tql.com, (513) 495-6786, USA, EST ","Hilary McFarland, HMcFarland@tql.com, USA, EST ","Erin Goodspeed, EGoodspeed@tql.com, USA, EST "
"Wellstar Health System, Inc.",WHSYUS,"Katelyn Huner, Katelyn.Hunter@cielotalent.com, (816)510-4070, US, Eastern",,
Bissell Inc.,BISSUS,"Katelyn Huner, Katelyn.Hunter@cielotalent.com, (816)510-4070, US, Eastern",,
Care Access Research,CECAGLOBAL,,,
Regeneron Pharmaceuticals Inc.,REGEA0026,,,
Cognizant Technology Solutions,COGNGLOBAL,,,
Delivery Hero,DEHEGLOBAL,,,
Ipsen,IPSEUS,,,
Jazz Pharmaceuticals,JAZZGLOBAL,,,
BMO Financial Group,BOMOGLOBAL,,,
Booking Holding,AGODGLOBAL,,,
Deloitte,DELOA003X,Churned,,
DHL,DHL1GLOBAL,,,
Intact Finance,BELACA,"Matthew King, matthew.king@intact.net",,
Intact Finance,IFCOUS,,,
Quadient,QDNDGLOBAL,,,
Royal Bank of Canada,RBCAA0088,,,
The Warehouse Group,WAGRGB,,,
Anderson Merchandisers,ANMEUS,"Senia Janiga, senia.janiga@amerch.com, 972.987.5729, USA, CST","Kelby Dodson, kelby.dodson@amerch.com, 469.553.0290, USA, CST",
"Belk, Inc.",BELKUS,"Carie Gerdeman, Carie_gerdeman@belk.com, 914-204-9339, USA, EST","Ewelina Janiszewski, Ewelina_Janiszewski@belk.com, 980-949-2738, USA, EST",
Boston Consulting Group,BCG1US,"Dorothea von Trotha, vontrotha.dorothea@bcg.com, +31 6 1082 3452, The Netherlands, Central European Time","Lucrezia Dal Pra, DalPra.Lucrezia@bcg.com, Italy ",
Carmax,CARMUS,"Angela Patton, angela_patton@carmax.com, USA, EST",,
"Foot Locker, Inc.",FLINUS,"Stephen Klesel, Stephen.Klesel@footlocker.com, +31 6 15 93 80 96, Netherlands, CEST","Ashley Lucas, Ashley.Lucas@footlocker.com, (414) 357-4055, USA, CST",
Taylor Morrison,TAMOUS,"Adam Tesler, ATesler@taylormorrison.com,14805882297, USA, EST ",,
Varsity Brands Inc,VABRUS,,"Dom Jones, dominique.jones@varsitybrands.com, TX CST","Preston Jacoby, pjacoby@varsitybrands.com, TX, CST"
"AAA Northern California, Nevada & Utah",AWGRUS,"Lindsy Sherry, lindsy.sherry@norcal.aaa.com",,
Blue Cross Blue Shield North Carolina,BBNCGLOBAL,"Darin Brinkman, darin.brinkman@bcbsnc.com",,
Delaware North Companies,DELAA003Y,"Laura Murray, lmurray@delawarenorth.com",,
Equifax,EQUIGLOBAL,"Tom Watson, tom.watson@equifax.com",,
First United Bank,FUBAGLOBAL,"Greg Carter, gcarter@firstunitedbank.com",,
RentPath,RENTUS,NO LONGER A CUSTOMER,,
San Manuel Band,SAMAUS,"Melanie Washington, melanie.washington@sanmanuel-nsn.gov",,
SEI Investments,SEI1GLOBAL,,,
TripAdvisor,LAFOGLOBAL,,,
TripAdvisor,TRINUS,,,
GE,GE11GLOBAL,,Matthew Fritz matthew.fritz@ge.com (312) 441-7038 CST,Heather Moffitt heather.moffitt1@ge.com (518) 708-4783 EST
PVH Corp.,PVH1US,,,
Danaher,DANAGLOBAL,"Melissa Lobo, melissa.lobo@danaher.com ","Bethany Brown, bethany.brown@danaher.com ","""Van Riper, Cindy"" <cindy.vanriper@danaher.com>,
"
Danaher,DAURGLOBAL,"Melissa Lobo, melissa.lobo@danaher.com ","Bethany Brown, bethany.brown@danaher.com ","""Van Riper, Cindy"" <cindy.vanriper@danaher.com>,
"
Hilton Worldwide,HIINGLOBAL,,,
Hilton Worldwide,HILTGLOBAL,,,
GENPACT,GENPUS,,,
Denny's,DENNGLOBAL,"Joann Boykin, jboykin@dennys.com, (864) 597-7618, USA, EST",Mike Lawson <mlawson@dennys.com>,
Sonepar USA,SONEUS,"Pam Midden-Conlin, pam.midden-conlin@sonepar-us.com, 843-745-2848, Cell: 843-277-5340, USA, EST

",,
Sunrun,SUNRUS,"Ruthie Strop, ruthie.strop@sunrun.com, (651) 587-4039, USA

","Wally Pfingsten, walter.pfingsten@sunrun.com,
650.766.4238, USA","Ashlee Smith, ashlee.smith@wnco.com, 214-792-4000, USA, CST"
VI Living,VILIA005J,"Claudine Trudeau, CTrudeau@viliving.com, USA",,
KeHE Distributors,KDLLUS,"Danny Ollier <Danny.Ollier@kehe.com> USA, CDT",,
SIG,SUSQA004Y,"""Marriott, Mark"" <Mark.Marriott@sig.com>, USA EST",,
The MENTOR Network,TMNEUS,"""Yenco, Kelsey"" <Kelsey.Yenco@thementornetwork.com>, USA EST",,
Chewy ,,"Casey Enderlein <cenderlein@chewy.com>, USA EST",,
Baptist Health South Florida,BAHEUS,,,
CEP America/MedAmerica/Vituity,CEAMUS,,,
ChenMed,CHENUS,,,
Community Medical Centers,CMCEUS,,,
Einstein Medical Center,EINSA0000,,,
"Hanger, Inc.",HAINUS,,,
Oceaneering,OCINGLOBAL,,,
Pathway Vet Alliance,PVALUS,,,
Silver Bay Seafood,SBSEUS,,,
Sparrow Health System,SHSYUS,,,
Standford Health Care,SHCAUS,,,
MedStar Health,MEHEGLOBAL,,,
Honeywell,HONEUS,"Bogdan Ciobanu, bogdan.ciobanu@honeywell.com, 40214085704, Romania, (GMT+3)","Ravi Kishore Reddy Chandra, ravikishorereddy.chandra@honeywell.com, 917893242167 India (IST)","Radhika M, radhika.m@honeywell.com, 916364895916, India (IST)"
Honeywell,HONEUS_EXEC,,,
INSPIRE BRANDS,ARBYUS,"Sage Sarvat, ssarvat@inspirebrands.com, 267-614-6425, United States (EST)","Ashley Fowler, afowler@inspirebrands.com, 952-540-2093 United States (CST)","Kristen Ferguson, KristenFerguson@inspirebrands.com, 405-921-9416, United States (CST)"
INSPIRE BRANDS,BWWIUS,"Sage Sarvat, ssarvat@inspirebrands.com, 267-614-6425, United States (EST)","Ashley Fowler, afowler@inspirebrands.com, 952-540-2093 United States (CST)","Kristen Ferguson, KristenFerguson@inspirebrands.com, 405-921-9416, United States (CST)"
INSPIRE BRANDS,RUTAUS,"Sage Sarvat, ssarvat@inspirebrands.com, 267-614-6425, United States (EST)","Ashley Fowler, afowler@inspirebrands.com, 952-540-2093 United States (CST)","Kristen Ferguson, KristenFerguson@inspirebrands.com, 405-921-9416, United States (CST)"
INSPIRE BRANDS,JIJOUS,,,
INSPIRE BRANDS,SONIUS,"Sage Sarvat, ssarvat@inspirebrands.com, 267-614-6425, United States (EST)","Ashley Fowler, afowler@inspirebrands.com, 952-540-2093 United States (CST)","Kristen Ferguson, KristenFerguson@inspirebrands.com, 405-921-9416, United States (CST)"
INSPIRE BRANDS,INBRUS,"Sage Sarvat, ssarvat@inspirebrands.com, 267-614-6425, United States (EST)","Ashley Fowler, afowler@inspirebrands.com, 952-540-2093 United States (CST)","Kristen Ferguson, KristenFerguson@inspirebrands.com, 405-921-9416, United States (CST)"
AccorHotels,ACCOGLOBAL,"Firath Francis, firath.francis@consulting-for.accor.com, +33 1 45 38 48 43, France, CET","Leonie de Lestang, Leonie.DELESTANG@consulting-for.accor.com, +33 1 45 38 48 43, France, CET",
AXA Partners,AXPAGLOBAL,Alderman Huntlee huntlee.alderman@partners.axa GMT,"Laura Herrero Laura.herrero@partners.axa, GMT",
Global Radio,GRSLGB,,,
Sky Betting and Gaming,SBGAGB,N/A,,
Unilever,URUVGLOBAL,,,
Allegis Group,ALGRUS,,,
Allegis Group,AEROUS,,,
Allegis Group,ASCAUS,,,
Allegis Group,EASIUS,,,
Allegis Group,AMGLUS,,,
Allegis Group,TESYUS,,,
Geico,GEICUS,"        
Mindy Jarrow
Director of Talent Acquisition
(301) 986-3000
mjarrow@geico.com
USA, EST","        
Jessica Guan
Corporate Branding Specialist
(301) 986-3000
jguan@geico.com","	
Marianne Higgins
Technical Supervisor
(301) 986-3149
mahiggins@geico.com"
Qualtrics,QUALUS,"Shaunda Zilich, shaundaz@qualtrics.com, 502.594.4335, US, MST",,
Unum,UNUMGLOBAL,"Ruchi Kaushik
AVP, Talent Acquisition
(207) 575-4835
rkaushik@unum.com
USA, EST","Kristie Ramsey, HRIS, KRamsey@unum.com, 865-789-9440, Knoxville, TN EST","Alba Kocibelli, Talent Acquisition Consultant, akocibelli@unum.com
Phone: 774-437-6834
Mass, EST"
"Warner Media, LLC",WAMEGLOBAL,,,
Kings College London,KCLOGB,"Frederico Maia: frederico.maia@kcl.ac.uk UK, GMT","Leanne Northam: leanne.northam@kcl.ac.uk , UK GMT",
MoneySupermarket Group,MONEUS,,,
Sopra Steria (of which SSCL is a subsidiary),SOSTUK,"Zoe Clarke: zoe.clarke@soprasteria.com , UK, GMT","Charlotte Evans: charlotte.evans3@soprasteria.com , UK GMT",
IMC Financial Markets,IMC1GLOBAL,,,
Randstad Group Netherlands bv,RANEUK,"Dennis Kanters: dennis.kanters@randstadgroep.nl ; Netherlands, CET","Stein Baumans: stein.bouwmans@randstadgroep.nl , Netherlands CET",
Randstad Group Netherlands bv,TEMPUK,"Dennis Kanters: dennis.kanters@randstadgroep.nl ; Netherlands, CET","Stein Baumans: stein.bouwmans@randstadgroep.nl , Netherlands CET",
Randstad Group Netherlands bv,YACHUK,"Dennis Kanters: dennis.kanters@randstadgroep.nl ; Netherlands, CET","Stein Baumans: stein.bouwmans@randstadgroep.nl , Netherlands CET",
Kuehne and Nagel Inc,KUNAGLOBAL,,,
Lowell,LOWEGLOBAL,"Paul Liberman: paul.liberman@lowellgroup.co.uk , UK, GMT",,
Tate & Lyle,,,,
ABB,ABB1GLOBAL,"
Adrian Gorycki, adrian.gorycki@pl.abb.com, Poland, CET","Katarzyna Klimowicz, katarzyna.klimowicz@pl.abb.com, Poland, CET",
Arcadis,ARCAGLOBAL,"Daniel Ainsworth, daniel.ainsworth@arcadis.com, United Kingdom, GMT","Lea Marie Enejosa, leamarie.enejosa@arcadis.com, Philippines, Phillipine Standard Time GMT+8 (note - individual works UK hours)",
Micro Focus,MICRGLOBAL,,"Sumy Parkat, sumy.parkat@microfocus.com, United States, EST","Valerie Roberts, valerie.roberts@microfocus.com, United States, CST"
Tesco,TESCUK,,,
Interactions,INTEUS,,"Lauren Hardy, Brigida Oskirko","lupham@interactions.com, boskirko@interactions.com"
"Waste Management, Inc.",WAMAUS,,,
Abbott,ABLAUS,,,
Hershey Company,AMSNUS,"Georgeanne Lapadat, GLapadat@hersheys.com, 717-374-7074, US, EST","Christine Hostetler, chostetler@hersheys.com, 717-534-7682, US, EST","Stephanie Womack, swomack@hersheys.com, US EST"
Hershey Company,HERSA005H,"Georgeanne Lapadat, GLapadat@hersheys.com, 717-374-7074, US, EST","Christine Hostetler, chostetler@hersheys.com, 717-534-7682, US, EST","Stephanie Womack, swomack@hersheys.com, US EST"
Mars,MARSGLOBAL,"Gina Denicoli, Gina.Denicoli@effem.com, USA, EDT","Vivian Zhang, vivian.zhang@effem.com, USA, EDT","Tia Matchett, Tia.Matchett@effem.com, UK, BST"
Marsh & McLennan,MAMCGLOBAL,"Katharine Landry, katharine.landry@mmc.com, USA, EDT","Sanchita Khanna, sanchita.khanna@mmc.com","Anubhav Kumar, anubhav.kumar@mmc.com"
Niagara Bottling,NBLLUS,,,
PNC,PNC1GLOBAL,,,
TruGreen,TRUGUS,"Jessica Mauncy, JessicaManucy@trugreenmail.com, USA, EST","Regina Franklin-Carter, ReginaFranklin-Carter@trugreenmail.com, USA, EST","Brian Wirzfeld, BrianWirzfeld@trugreenmail.com, USA, EST"
Chime,,"Dakota Betts, dbetts@chime.com, PST",,
Western Governors University,,"Graeme Sprague, graeme.sprague@wgu.edu, 385-428-6808, GMT","Denise Granquist, denise.granquist@wgu.edu, 801-274-3280, GMT",
HD Supply,,"Reem Mansoura, reem.mansoura@hdsupply.com, 706-767-8293, EST","William Wilson, william.wilson2@hdsupply.com, 770-852-9000, EST",
Success Academy Charter Schools,,,,
"Life Time Fitness, Inc.",LITIGLOBAL,thudak@lt.life,efering@lt.life,sher@lt.life
Thermo Fisher Scientific,TFSCGLOBAL,tyler.bennett@thermofisher.com,kyley.eng@thermofisher.com,Joel.Siriban@thermofisher.com
Merck,MERCUS,"Dara Silvergate, dara.silvergate@merck.com USA, EDT","Vicki McCarthy-Rodriguez, vicki_mccarthyrodriguez@merck.com, USA, EDT","Michael Domingo, michael.domingo@merck.com, USA EDT"
Merck,MSD1GB,"Dara Silvergate, dara.silvergate@merck.com USA, EDT","Vicki McCarthy-Rodriguez, vicki_mccarthyrodriguez@merck.com, USA, EDT","Michael Domingo, michael.domingo@merck.com, USA EDT"
Organon ,MECEUS,"Robert DeMaria, robert.demaria@organon.com, USA, EST","AnnMarie Zollo, annmarie.zollo@organon.com, USA, EST","Karen Stecklair, karen.stecklair@organon.com, USA"
GE Appliances,GEAPUS,,,
IPG Mediabrands,CADRGLOBAL,,,
IPG Mediabrands,INITGLOBAL,,,
IPG Mediabrands,ORIOGLOBAL,,,
IPG Mediabrands,UM11GLOBAL,,,
IPG Mediabrands,IPGMA008D,,,
McKesson Specialty Health,MCKEA0087,,,
Whole Foods Market,WHFOGLOBAL,"Sean Bestor, Sean.Bestor@wholefoods.com, USA, Central Time",,
CACI,CACIGLOBAL,"Brian Harris- brian.harris@caci.com, 571-294-6101, USA, EST","Deanna Dropiewski- Deanna.dropiewski@caci.com, 720-215-6837, USA, MST","Jessica Brownell- Jessica.brownell@caci.com, 571-328-9291, USA, EST"
McAfee,MCAFGLOBAL,"Emma Loafman,emma_loafman@mcafee.com,,972-365-1010,United States,Central","Lakia Works,lakia_works@mcafee.com,,,United States,Central","Karen Terrell,karen_terrell@mcafee.com,,,United States,Central"
Snowflake Computing,SNCOUS,"Kim Burrow, Kim.burrow@snowflake.com, US, Central","Maxine McGee, maxine.mcgee@snowflake.com, US, Pacific","Minaal Malik, minaal.malik@snowflake.com, US, Pacific"
The Trade Desk,,"Chris Masteller chris.masteller@thetradedesk.com  Pacific Time, USA","Janice Gill-Hester janice.gill-hester@thetradedesk.com Pacific, USA","Josh Lax josh.lax@thetradedesk.com Eastern, USA"
BAE SYSTEMS,BAE1US,Moira Welsh (moira.welsh@baesystems.com),Clairise Tillman (clairise.tillman@baesystems.com),Arleta Soundappan (arleta.soundappan@baesystems.com)
FIS,FIGLUS,"Zach Elder, zach.elder@fisglobal.com","Tammy Callahan, tammy.callahan@fisglobal.com","Melony Simon , melony.simon@fisglobal.com"
General Motors,GENEA0084,"Heather Holm, heather.holm@gm.com","Suzanne Johnson, suzanne.m.johnson@gm.com",
Kohl's Corporation,KLHKUS,"Emalee Pokos, emalee.pokos@kohls.com","Angela Schmitt, angela.schmitt@kohls.com","Cristina Dimou, cristina.dimou@kohls.com"
Panera Bread Inc.,PABRGLOBAL,"Steven Caldwell, Steven.Caldwell@panerabread.com","Jake Guetterman, jake.guetterman@panerabread.com","Julia Skorb, julia.skorb@panerabread.com"
Trinity Health,TRHEUS,"Samantha Belanger, SAMANTHA.BELANGER001@trinity-health.org","Louis Gleixner, Louis.Gleixner@trinity-health.org",Mark Becker | Mark.Becker@trinity-health.org
BRP,BRP1GLOBAL,Joanne Blackburn,,
City of Edmonton,CITYA000C,"Colin Dryden, colin.dryden@edmonton.ca",,
Hootsuite Media,HOOTUS,"Danielle Gregov, danielle.gregov@hootsuite.com",,
PCL Construction,PCCOUS,"Nadia Camphor, ncamphor@pcl.com",,
QuadReal,QUADGLOBAL,"Steve Johnson, steve.johnson@quadreal.com",,
Sienna Senior Living,SILICA,"Sadaf Duri, sadaf.duri@siennaliving.ca",,
Spin Master,SPMAGLOBAL,"Fabiana Santana, fabianas@spinmaster.com","Sascha King, SaschaK@SpinMaster.com",
Aegis Therapies,AETHUS,"Kay McCall, Kay.Mccall@aegistherapies.com, (972) 372-6351, US (CST)","Nereyda Dominguez, nereyda.dominguez@aegistherapies.com, (972) 372-6767, US (CST)",
Holy Redeemer Health System,HOLIA008H,"Patricia Benz, pbenz@holyredeemer.com, (215) 214-0684, US (EST)","Bernadette Myslinski, bmyslinski@holyredeemer.com, 215-214-0686, US (EST)",
Resort Lifestyle Communities,RLCOUS,"Courtney Zemunski, czemunski@rlcommunities.com, (402) 420-2311, US (CST)
",,
Children's Medical Center of Dallas,CHHEUS,"Allan Akinradewo, 214456700, allan.akinradewo@childrens.com, US (CST)","Lawrence Gardner, lawrence.gardner@childrens.com, (516) 782-3854, US (CST)",
Sage Therapeutics,SAGEUS,"
Lisa Hazen, lisa.hazen@sagerx.com, (917) 402-9225, US (EST)
","
Marcus Tgettis, marcus.tgettis@sagerx.com, (617) 299-8380, US (EST)",
Smile Brands Inc,SBINUS,"Kristin Armenta, kristin.armenta@smilebrands.com, (714) 668-1300, US (PST)
",,
ThedaCare,THEDUS,"Ryan Rieth, ryan.rieth@thedacare.org, 920-660-3113, US (CST)","Angela Czaja, angela.czaja@thedacare.org, 920-454-4254, US (CST)
",
Ortho Clinical Diagnostics,,"Lisa Battaglino, lisa.battaglino@orthoclinicaldiagnostics.com, +41 61 324 11 11, Canada 
",,
DuPont,DUPOUS,"Jackson, REBECCA rebecca.jackson@dupont.com","ALONSO, ELISA Elisa.Alonso@dupont.com","ALDAMA, ANDREA andrea.aldama@dupont.com"
Guidewell (Florida Blue),DCMGUS,,,
Guidewell (Florida Blue),FCSOUS,,,
Guidewell (Florida Blue),FLBLUS,,,
Guidewell (Florida Blue),GUIDUS,,,
Guidewell (Florida Blue),GUCOUS,,,
Guidewell (Florida Blue),GUSOUS,,,
Guidewell (Florida Blue),NOSOUS,,,
Guidewell (Florida Blue),ONLIUS,,,
Guidewell (Florida Blue),FBMEUS,,,
Guidewell (Florida Blue),WEBTUS,,,
Newell Brands,NEBRUS,,,
Cigna,CIGNUS,"Annie Scozzare, Annamarie.Scozzare@Cigna.com, 215-888-5998, US, Eastern","Allyson O'Donnell, Allyson.O'Donnell@Cigna.com, 215-761-4713, US, Eastern","Wendy Sunderland, Gwendolyn.Sunderland@CIGNA.COM, 410-375-6379, US, Eastern"
Cigna,ESMEUS,,,
Covance Inc.,COVAGLOBAL,"Tia Gibson, Tia.gibson@labcorp.com, 608-333-9705, US, US Central (UTC -5)","Adam Braden, Adam.Braden@labcorp.com, 317-709-8607, US, US Eastern (UTC -4)","Chris Walik, Chris.Walik@labcorp.com, 919-662-1782, US, US Pacific (UTC -7)"
Microsoft,MICRUS,,,
Regions Financial Corp,RFCOUS,"Jake Thomas, 
Jake.thomas@regions.com, 
205-264-5050, 
US, 
CST","Scott Ewert, 
Scott.ewert@regions.com, 
205-264-7303, 
US, 
CST","Melinda Littleton, Melinda.littleton@regions.com, 615-293-5613, 
US, 
CST"
Arrow Electronics,ARELUS,"        
Erin Caravello
Sr. HR Manager
(303) 824-4000
erin.caravello@arrow.com
US, MT","Kate Mihaylova
TA Systems Analyst
(303) 824-3789
kate.mihaylova@arrow.com
US, MT","Chris DeLisa
Director, Human Resources & Global Talent Acquisition
(303) 824-4087
chris.delisa@arrow.com
US, MT"
Baylor Scott & White Health,BSWHUS,Stephanie Proctor Stephanie.Proctor1@bswhealth.org CST (214) 820-6482,Whitney Wallace Whitney.Wallace1@bswhealth.org CST (972) 785-5993,Amy Madrid Amy.Madrid@bswhealth.org CST (254) 899-3736
Southwest Airlines,SOUTUS,"Kelby Tansey, kelby.tansey@wnco.com, 417-293-5270, USA, CST","Joanna Ferrara, joanna.ferrara@wnco.com, 480-329-4968, USA, MST","Courtney Willenbrock, courtney.willenbrock@wnco.com, 208-946-6374, USA, CST"
"Chegg, Inc.",CHEGA0056,"Aaron Pullman
Global Head of Talent Acquisition
apullman@chegg.com
(408) 855-5700
USA, PST",,
Yelp,YELPUS,"Hugo Organista
Recruitment Marketing Specialist
hugoo@yelp.com
(480) 522-8023
PST, USA",,
CUNA Mutual Group,CUNAUS,,,
Zions Bancorporation,AMBAUS,,,
Zions Bancorporation,CABAGLOBAL,,,
Zions Bancorporation,NBOAGLOBAL,,,
Zions Bancorporation,NSBAGLOBAL,,,
Zions Bancorporation,TCBAGLOBAL,,,
Zions Bancorporation,VEBAUS,,,
Zions Bancorporation,ZIBAUS,,,
Zions Bancorporation,ZIONGLOBAL,,,
5CA,5CA1GLOBAL,,,
Amica Mutual Insurance Company,AMICUS,,,
AMI Expeditionary Healthcare,AMIHGLOBAL,"David Edment, david.edment@ami.health, +1 571‑375‑8366, Scotland, SCT

",,
Angel Broking LTD,ABLTGLOBAL,,,
ICA Gruppen (AB),IGABSE,,,
Aptive Environmental,APTIUS,,,
ASM,ASM1US,,,
"Blackbaud, Inc.",BLBBUS,,,
Blue Cross Blue Shield Of Massachusetts,BCBSUS,,,
Caliber Collision Centers,CACOUS,Mercedes Hernandez Mercedes.Hernandez@calibercollision.com CST,lauren.demoya@calibercollision.com Lauren Demoya EST,
CareUK  - CHURNING,CAREGLOBAL,,,
Chubb Corporation,CIHIGLOBAL,,,
Healthfirst,HEALUS,,,
Circle K,CIKCGLOBAL,,,
Johnsonville,JOHNUS,,,
Medcor,MEDCUS,,,
TRC Staffing,TRSTUS,,,
The Wonderful Company,WOCIGLOBAL,,,
ConvaTec,CONVGLOBAL,,,
Collaborative Solutions (Partner),COSOUS,,,
"Gannett Fleming, Inc.",GAFLUS,,,
Group 42,GR42AE,,,
Intuitive,INSUUS,Charise Mueller charise.muller@intusurg.com PST,,
Jackson Health System,JHSYUS,,,
Jet Propulsion Laboratory,JJPLUS,,,
Mace,MACEGB,,,
Prisma Health (aka Palmetto Health),PRHEUS,"Laura Morrow-Fox, Leslie Flemming","laura.morrow-fox@prismahealth.org, leslie.fleming@prismahealth.org",
Restaurant Brands International,RBINGLOBAL,"Bryan Kaminski, bkaminski@rbi.com, ","Norman Lee, nlee@rbi.com",
Royal Enfield,ROENUS,,,
Sweetwater Sound,SWSOUS,,,
UCB,UCB1GLOBAL,"Fanny Keup, fanny.keup@ucb.com","Yvonne Schmitt-Fesenbeck, Yvonne.Schmitt-Fesenbeck@ucb.com","Jonathan Berlan, jonathan.berlan@ucb.com"
VolkerWessels,VOWENL,,,
Tilney (Resource Solutions),,"Megan Pon, megan.pon@resourcesolutions.com , UK GMT",,
Electrolux,,,,